hw6
…
cn<-as.list(colnames(birthweight))

?facet_grid

Propose a regression model for birthweight. This model may be based on a hypothesized structure for the factors that underly birthweight, on a data-driven model-building process, or a combination of the two. Describe your modeling process and show a plot of model residuals against fitted values  use add_predictions and add_residuals in making this plot.

Answer

birthweight

## # A tibble: 4,342 x 20
##      bwt babysex mrace frace malform blength delwt fincome gaweeks menarche
##    <dbl> <fct>   <fct> <fct> <fct>     <dbl> <dbl>   <dbl>   <dbl>    <dbl>
##  1  3629 female  White White absent       51   177      35    39.9       13
##  2  3062 male    Black Black absent       48   156      65    25.9       14
##  3  3345 female  White White absent       50   148      85    39.9       12
##  4  3062 male    White White absent       52   157      55    40         14
##  5  3374 female  White White absent       52   156       5    41.6       13
##  6  3374 male    White White absent       52   129      55    40.7       12
##  7  2523 female  Black Black absent       46   126      96    40.3       14
##  8  2778 female  White White absent       49   140       5    37.4       12
##  9  3515 male    White White absent       52   146      85    40.3       11
## 10  3459 male    Black Black absent       50   169      75    40.7       12
## #  with 4,332 more rows, and 10 more variables: mheight <dbl>,
## #   momage <dbl>, parity <dbl>, pnumlbw <dbl>, pnumsga <dbl>, ppbmi <dbl>,
## #   ppwt <dbl>, smoken <dbl>, wtgain <dbl>, id <int>
…
